Position;Teams;Games played;Wins;Draws;Loses;Goal difference;Points
1;Atletico;30;20;7;3;32;67
2;Real Madrid;30;20;6;4;29;66
3;Barcelona;30;20;5;5;43;65
4;Sevilla;30;19;4;7;20;61
5;Real Sociedad;30;12;11;7;16;47
6;Betis;30;14;5;11;-3;47
7;Villarreal;30;11;13;6;10;46
8;Granada;30;11;6;13;-14;39
9;Levante;30;9;11;10;-2;38
10;Celta Vigo;30;9;10;11;-7;37
11;Bilbao;30;9;10;11;6;37
12;Cadiz;30;9;8;13;-18;35
13;Valencia;30;8;10;12;-5;34
14;Osasuna;30;8;10;12;-11;34
15;Getafe;30;7;9;14;-12;30
16;Huesca;30;5;12;13;-14;27
17;Valladolid;30;5;12;13;-14;27
18;Elche;30;5;11;14;-19;26
19;Alaves;30;5;9;16;-23;24
20;Eibar;30;4;11;15;-14;23
